%YAML 1.1
%TAG !u! tag:unity3d.com,2011:
--- !u!114 &11400000
MonoBehaviour:
  m_ObjectHideFlags: 0
  m_PrefabParentObject: {fileID: 0}
  m_PrefabInternal: {fileID: 0}
  m_GameObject: {fileID: 0}
  m_Enabled: 1
  m_EditorHideFlags: 0
  m_Script: {fileID: -1822101463, guid: 09c9b883b79ef864a99683bb36c5776d, type: 3}
  m_Name: EditorSettings
  m_EditorClassIdentifier: 
  programVersion1: 1
  programVersion2: 1
  programVersion3: 29
  programVersion4: 0
  dataVersion: 1
