%YAML 1.1
%TAG !u! tag:unity3d.com,2011:
--- !u!181963792 &2655988077585873504
Preset:
  m_ObjectHideFlags: 0
  m_PrefabParentObject: {fileID: 0}
  m_PrefabInternal: {fileID: 0}
  m_Name: LeftRightEnemy
  m_TargetType:
    m_NativeTypeID: 114
    m_ManagedTypePPtr: {fileID: 11500000, guid: ebeb08c8279f2496d968fad25be2c981,
      type: 3}
    m_ManagedTypeFallback: 
  m_Properties:
  - target: {fileID: 0}
    propertyPath: m_Enabled
    value: 1
    objectReference: {fileID: 0}
  - target: {fileID: 0}
    propertyPath: m_EditorHideFlags
    value: 0
    objectReference: {fileID: 0}
  - target: {fileID: 0}
    propertyPath: m_Name
    value: 
    objectReference: {fileID: 0}
  - target: {fileID: 0}
    propertyPath: m_EditorClassIdentifier
    value: 
    objectReference: {fileID: 0}
  - target: {fileID: 0}
    propertyPath: movingRight
    value: 1
    objectReference: {fileID: 0}
  - target: {fileID: 0}
    propertyPath: filterRight.useTriggers
    value: 0
    objectReference: {fileID: 0}
  - target: {fileID: 0}
    propertyPath: filterRight.useLayerMask
    value: 0
    objectReference: {fileID: 0}
  - target: {fileID: 0}
    propertyPath: filterRight.useDepth
    value: 0
    objectReference: {fileID: 0}
  - target: {fileID: 0}
    propertyPath: filterRight.useOutsideDepth
    value: 0
    objectReference: {fileID: 0}
  - target: {fileID: 0}
    propertyPath: filterRight.useNormalAngle
    value: 1
    objectReference: {fileID: 0}
  - target: {fileID: 0}
    propertyPath: filterRight.useOutsideNormalAngle
    value: 0
    objectReference: {fileID: 0}
  - target: {fileID: 0}
    propertyPath: filterRight.layerMask.m_Bits
    value: 0
    objectReference: {fileID: 0}
  - target: {fileID: 0}
    propertyPath: filterRight.minDepth
    value: 0
    objectReference: {fileID: 0}
  - target: {fileID: 0}
    propertyPath: filterRight.maxDepth
    value: 0
    objectReference: {fileID: 0}
  - target: {fileID: 0}
    propertyPath: filterRight.minNormalAngle
    value: 165
    objectReference: {fileID: 0}
  - target: {fileID: 0}
    propertyPath: filterRight.maxNormalAngle
    value: 195
    objectReference: {fileID: 0}
  - target: {fileID: 0}
    propertyPath: filterLeft.useTriggers
    value: 0
    objectReference: {fileID: 0}
  - target: {fileID: 0}
    propertyPath: filterLeft.useLayerMask
    value: 0
    objectReference: {fileID: 0}
  - target: {fileID: 0}
    propertyPath: filterLeft.useDepth
    value: 0
    objectReference: {fileID: 0}
  - target: {fileID: 0}
    propertyPath: filterLeft.useOutsideDepth
    value: 0
    objectReference: {fileID: 0}
  - target: {fileID: 0}
    propertyPath: filterLeft.useNormalAngle
    value: 1
    objectReference: {fileID: 0}
  - target: {fileID: 0}
    propertyPath: filterLeft.useOutsideNormalAngle
    value: 0
    objectReference: {fileID: 0}
  - target: {fileID: 0}
    propertyPath: filterLeft.layerMask.m_Bits
    value: 0
    objectReference: {fileID: 0}
  - target: {fileID: 0}
    propertyPath: filterLeft.minDepth
    value: 0
    objectReference: {fileID: 0}
  - target: {fileID: 0}
    propertyPath: filterLeft.maxDepth
    value: 0
    objectReference: {fileID: 0}
  - target: {fileID: 0}
    propertyPath: filterLeft.minNormalAngle
    value: -15
    objectReference: {fileID: 0}
  - target: {fileID: 0}
    propertyPath: filterLeft.maxNormalAngle
    value: 15
    objectReference: {fileID: 0}
